<?xml version="1.0" encoding="UTF-8" standalone="no"?>
<!-- Created with Inkscape (http://www.inkscape.org/) -->

<svg
   xmlns:dc="http://purl.org/dc/elements/1.1/"
   xmlns:cc="http://creativecommons.org/ns#"
   xmlns:rdf="http://www.w3.org/1999/02/22-rdf-syntax-ns#"
   xmlns:svg="http://www.w3.org/2000/svg"
   xmlns="http://www.w3.org/2000/svg"
   xmlns:xlink="http://www.w3.org/1999/xlink"
   xmlns:sodipodi="http://sodipodi.sourceforge.net/DTD/sodipodi-0.dtd"
   xmlns:inkscape="http://www.inkscape.org/namespaces/inkscape"
   width="1144.7802"
   height="921.50116"
   id="svg4507"
   version="1.1"
   inkscape:version="0.91 r"
   sodipodi:docname="ExpSetup-BPP.svg"
   inkscape:export-filename="/home/svoboda/mnt/buon/GW/Experiments/EdgePlasmaPhysics/ParticleFlux/BallPenProbe/Experiments/0117RadialProfile/setup/ExpSetup.png"
   inkscape:export-xdpi="200.02724"
   inkscape:export-ydpi="200.02724">
  <defs
     id="defs4509">
    <linearGradient
       inkscape:collect="always"
       id="linearGradient9141">
      <stop
         style="stop-color:#ff0000;stop-opacity:1;"
         offset="0"
         id="stop9143" />
      <stop
         style="stop-color:#ff0000;stop-opacity:0;"
         offset="1"
         id="stop9145" />
    </linearGradient>
    <marker
       inkscape:stockid="Arrow1Mstart"
       orient="auto"
       refY="0"
       refX="0"
       id="Arrow1Mstart"
       style="overflow:visible">
      <path
         id="path3949"
         d="M 0,0 5,-5 -12.5,0 5,5 0,0 Z"
         style="fill-rule:evenodd;stroke:#000000;stroke-width:1pt"
         transform="matrix(0.4,0,0,0.4,4,0)"
         inkscape:connector-curvature="0" />
    </marker>
    <marker
       inkscape:stockid="Arrow1Send"
       orient="auto"
       refY="0"
       refX="0"
       id="Arrow1Send"
       style="overflow:visible">
      <path
         id="path3958"
         d="M 0,0 5,-5 -12.5,0 5,5 0,0 Z"
         style="fill-rule:evenodd;stroke:#000000;stroke-width:1pt"
         transform="matrix(-0.2,0,0,-0.2,-1.2,0)"
         inkscape:connector-curvature="0" />
    </marker>
    <marker
       inkscape:stockid="Arrow1Mend"
       orient="auto"
       refY="0"
       refX="0"
       id="Arrow1Mend"
       style="overflow:visible">
      <path
         id="path3952"
         d="M 0,0 5,-5 -12.5,0 5,5 0,0 Z"
         style="fill-rule:evenodd;stroke:#000000;stroke-width:1pt"
         transform="matrix(-0.4,0,0,-0.4,-4,0)"
         inkscape:connector-curvature="0" />
    </marker>
    <marker
       inkscape:stockid="Arrow2Mend"
       orient="auto"
       refY="0"
       refX="0"
       id="Arrow2Mend"
       style="overflow:visible">
      <path
         id="path3970"
         style="fill-rule:evenodd;stroke-width:0.625;stroke-linejoin:round"
         d="M 8.7185878,4.0337352 -2.2072895,0.01601326 8.7185884,-4.0017078 c -1.7454984,2.3720609 -1.7354408,5.6174519 -6e-7,8.035443 z"
         transform="scale(-0.6,-0.6)"
         inkscape:connector-curvature="0" />
    </marker>
    <marker
       inkscape:stockid="Arrow1Lend"
       orient="auto"
       refY="0"
       refX="0"
       id="Arrow1Lend"
       style="overflow:visible">
      <path
         id="path3946"
         d="M 0,0 5,-5 -12.5,0 5,5 0,0 Z"
         style="fill-rule:evenodd;stroke:#000000;stroke-width:1pt"
         transform="matrix(-0.8,0,0,-0.8,-10,0)"
         inkscape:connector-curvature="0" />
    </marker>
    <linearGradient
       inkscape:collect="always"
       id="linearGradient3790">
      <stop
         style="stop-color:#ff0000;stop-opacity:1;"
         offset="0"
         id="stop3792" />
      <stop
         style="stop-color:#ff0000;stop-opacity:0;"
         offset="1"
         id="stop3794" />
    </linearGradient>
    <radialGradient
       inkscape:collect="always"
       xlink:href="#linearGradient3790"
       id="radialGradient3796"
       cx="309.10669"
       cy="487.68692"
       fx="309.10669"
       fy="487.68692"
       r="115.17954"
       gradientUnits="userSpaceOnUse" />
    <radialGradient
       inkscape:collect="always"
       xlink:href="#linearGradient3790"
       id="radialGradient9017"
       gradientUnits="userSpaceOnUse"
       cx="309.10669"
       cy="487.68692"
       fx="309.10669"
       fy="487.68692"
       r="115.17954"
       gradientTransform="matrix(2.5833146,0,0,2.5931784,-17.3282,-648.99709)" />
    <radialGradient
       inkscape:collect="always"
       xlink:href="#linearGradient9141"
       id="radialGradient9147"
       cx="309.10669"
       cy="487.68692"
       fx="309.10669"
       fy="487.68692"
       r="116.14631"
       gradientUnits="userSpaceOnUse"
       gradientTransform="matrix(2.5859471,0,0,2.5859471,550.60538,-1342.0793)" />
  </defs>
  <sodipodi:namedview
     id="base"
     pagecolor="#ffffff"
     bordercolor="#666666"
     borderopacity="1.0"
     inkscape:pageopacity="0.0"
     inkscape:pageshadow="2"
     inkscape:zoom="1.0998459"
     inkscape:cx="-2.4117977"
     inkscape:cy="457.74313"
     inkscape:document-units="mm"
     inkscape:current-layer="layer1"
     showgrid="false"
     inkscape:window-width="2048"
     inkscape:window-height="1100"
     inkscape:window-x="-3"
     inkscape:window-y="-3"
     inkscape:window-maximized="1"
     showguides="true"
     inkscape:guide-bbox="true"
     units="mm"
     fit-margin-top="0"
     fit-margin-left="0"
     fit-margin-right="0"
     fit-margin-bottom="0" />
  <metadata
     id="metadata4512">
    <rdf:RDF>
      <cc:Work
         rdf:about="">
        <dc:format>image/svg+xml</dc:format>
        <dc:type
           rdf:resource="http://purl.org/dc/dcmitype/StillImage" />
        <dc:title />
      </cc:Work>
    </rdf:RDF>
  </metadata>
  <g
     inkscape:label="Layer 1"
     inkscape:groupmode="layer"
     id="layer1"
     transform="translate(653.51475,-782.82526)">
    <circle
       r="297.84821"
       cy="-80.946716"
       cx="1349.939"
       id="path9131"
       style="fill:url(#radialGradient9147);fill-opacity:1;stroke:#000000;stroke-width:0.39330709;stroke-miterlimit:4;stroke-dasharray:none;stroke-opacity:1"
       transform="matrix(0,1,-1,0,0,0)" />
    <path
       inkscape:connector-curvature="0"
       sodipodi:nodetypes="cc"
       id="path5312"
       d="m -185.2451,1582.8457 -435.8987,0"
       style="fill:none;stroke:#000000;stroke-width:3.54330516;stroke-linecap:square;stroke-linejoin:miter;stroke-miterlimit:4;stroke-dasharray:none;stroke-opacity:1" />
    <ellipse
       cy="-82.082825"
       cx="1349.9388"
       id="path3788"
       style="fill:url(#radialGradient9017);fill-opacity:1;stroke:none"
       rx="297.54498"
       ry="298.68109"
       transform="matrix(0,1,-1,0,0,0)"
       inkscape:export-xdpi="90"
       inkscape:export-ydpi="90" />
    <rect
       style="fill:#ffffff;fill-opacity:1;stroke:#000000;stroke-width:0.92522764;stroke-opacity:1"
       id="rect3798"
       width="35.507843"
       height="242.14778"
       x="1347.2847"
       y="174.17702"
       transform="matrix(0,1,-1,0,0,0)" />
    <path
       inkscape:connector-curvature="0"
       sodipodi:nodetypes="cc"
       id="path3933"
       d="m -150.469,942.58962 0,370.86618"
       style="fill:none;stroke:#000000;stroke-width:1.77165353;stroke-linecap:square;stroke-linejoin:miter;stroke-miterlimit:4;stroke-dasharray:5.3149606, 5.3149606;stroke-dashoffset:0;stroke-opacity:1" />
    <path
       style="fill:none;stroke:#000000;stroke-width:1.77165353;stroke-linecap:square;stroke-linejoin:miter;stroke-miterlimit:4;stroke-dasharray:5.3149606, 5.3149606;stroke-dashoffset:0;stroke-opacity:1"
       d="m 81.6237,814.37714 0,533.04236"
       id="path3935"
       sodipodi:nodetypes="cc"
       inkscape:connector-curvature="0" />
    <path
       style="fill:none;stroke:#000000;stroke-width:1.77165353;stroke-linecap:square;stroke-linejoin:miter;stroke-miterlimit:4;stroke-dasharray:none;stroke-opacity:1;marker-start:url(#Arrow1Mend);marker-mid:none;marker-end:url(#Arrow1Mstart)"
       d="m 84.7009,960.64063 -235.4396,-2e-5"
       id="path3937"
       sodipodi:nodetypes="cc"
       inkscape:connector-curvature="0" />
    <rect
       style="fill:#ffffff;fill-rule:evenodd;stroke:#ffffff;stroke-width:0.56420732px;stroke-linecap:butt;stroke-linejoin:miter;stroke-opacity:1"
       id="rect3538"
       width="144.09229"
       height="39.532173"
       x="1.8137543"
       y="913.99786" />
    <text
       xml:space="preserve"
       style="font-style:normal;font-weight:normal;font-size:32px;line-height:125%;font-family:Sans;letter-spacing:0px;word-spacing:0px;fill:#000000;fill-opacity:1;stroke:none"
       x="-133.0954"
       y="941.95221"
       id="text6265"
       sodipodi:linespacing="125%"><tspan
         sodipodi:role="line"
         id="tspan6267"
         x="-133.0954"
         y="941.95221"
         style="font-size:24px">r<tspan
   style="font-size:24px;baseline-shift:sub"
   id="tspan6277">bpp</tspan>=seq(65,5,95) mm</tspan></text>
    <path
       style="fill:none;stroke:#000000;stroke-width:1.77165353;stroke-linecap:square;stroke-linejoin:miter;stroke-miterlimit:4;stroke-dasharray:5.3149606, 5.3149606;stroke-dashoffset:0;stroke-opacity:1"
       d="m -272.1305,796.59584 0,516.95676"
       id="path6269"
       sodipodi:nodetypes="cc"
       inkscape:connector-curvature="0" />
    <path
       inkscape:connector-curvature="0"
       sodipodi:nodetypes="cc"
       id="path6271"
       d="m 80.9575,898.87403 -300.0138,-2e-5"
       style="fill:none;stroke:#000000;stroke-width:1.77165353;stroke-linecap:square;stroke-linejoin:miter;stroke-miterlimit:4;stroke-dasharray:none;stroke-opacity:1;marker-start:url(#Arrow1Mend);marker-mid:none;marker-end:url(#Arrow1Mstart)" />
    <path
       style="fill:none;stroke:#000000;stroke-width:1.77165353;stroke-linecap:square;stroke-linejoin:miter;stroke-miterlimit:4;stroke-dasharray:none;stroke-opacity:1;marker-start:url(#Arrow1Mend);marker-mid:none;marker-end:url(#Arrow1Mstart)"
       d="m 80.9575,816.51857 -351.4859,-2e-5"
       id="path6273"
       sodipodi:nodetypes="cc"
       inkscape:connector-curvature="0" />
    <path
       style="fill:none;stroke:#000000;stroke-width:1.77165353;stroke-linecap:square;stroke-linejoin:miter;stroke-miterlimit:4;stroke-dasharray:5.3149606, 5.3149606;stroke-dashoffset:0;stroke-opacity:1"
       d="m -219.7225,874.27202 0,437.91088"
       id="path6275"
       sodipodi:nodetypes="cc"
       inkscape:connector-curvature="0" />
    <text
       sodipodi:linespacing="125%"
       id="text6289"
       y="878.3139"
       x="-132.15948"
       style="font-style:normal;font-weight:normal;font-size:32px;line-height:125%;font-family:Sans;letter-spacing:0px;word-spacing:0px;fill:#000000;fill-opacity:1;stroke:none"
       xml:space="preserve"><tspan
         style="font-size:24px"
         y="878.3139"
         x="-132.15948"
         id="tspan6291"
         sodipodi:role="line">r<tspan
   style="font-size:65.00091553%;baseline-shift:sub"
   id="tspan6297">a</tspan>=85 mm</tspan></text>
    <text
       xml:space="preserve"
       style="font-style:normal;font-weight:normal;font-size:32px;line-height:125%;font-family:Sans;letter-spacing:0px;word-spacing:0px;fill:#000000;fill-opacity:1;stroke:none"
       x="-129.35187"
       y="800.63776"
       id="text6299"
       sodipodi:linespacing="125%"><tspan
         sodipodi:role="line"
         id="tspan6301"
         x="-129.35187"
         y="800.63776"
         style="font-size:24px">r<tspan
   id="tspan6303"
   style="font-size:65.00091553%;baseline-shift:sub">0</tspan>=100 mm</tspan></text>
    <text
       xml:space="preserve"
       style="font-style:normal;font-weight:normal;font-size:32px;line-height:125%;font-family:Sans;letter-spacing:0px;word-spacing:0px;fill:#000000;fill-opacity:1;stroke:none"
       x="430.79666"
       y="1475.693"
       id="text6305"
       sodipodi:linespacing="125%"><tspan
         sodipodi:role="line"
         id="tspan6307"
         x="430.79666"
         y="1475.693">HFS</tspan></text>
    <text
       sodipodi:linespacing="125%"
       id="text6309"
       y="1480.6891"
       x="-319.45474"
       style="font-style:normal;font-weight:normal;font-size:32px;line-height:125%;font-family:Sans;letter-spacing:0px;word-spacing:0px;fill:#000000;fill-opacity:1;stroke:none"
       xml:space="preserve"><tspan
         y="1480.6891"
         x="-319.45474"
         id="tspan6311"
         sodipodi:role="line">LFS</tspan></text>
    <path
       style="fill:none;stroke:#000000;stroke-width:3.54330516;stroke-linecap:square;stroke-linejoin:miter;stroke-miterlimit:4;stroke-dasharray:none;stroke-opacity:1"
       d="m -190.43461,1364.4369 -299.70129,0"
       id="path7882"
       sodipodi:nodetypes="cc"
       inkscape:connector-curvature="0" />
    <g
       id="g8719"
       style="display:inline"
       transform="matrix(0,1,-1,0,-435.7233,1391.9209)">
      <path
         style="display:inline;fill:none;stroke:#000000;stroke-width:3.54330707;stroke-linecap:square;stroke-linejoin:miter;stroke-miterlimit:4;stroke-dasharray:none;stroke-opacity:1"
         d="m 212.1968,201.43114 -42.51967,0"
         id="path8721"
         sodipodi:nodetypes="cc"
         inkscape:connector-curvature="0" />
      <path
         style="display:inline;fill:none;stroke:#000000;stroke-width:3.54330587;stroke-linecap:butt;stroke-linejoin:miter;stroke-miterlimit:4;stroke-dasharray:none;stroke-opacity:1"
         d="m 190.93697,187.2579 0,14.17324"
         id="path8723"
         sodipodi:nodetypes="cc"
         inkscape:connector-curvature="0" />
      <path
         style="display:inline;fill:none;stroke:#000000;stroke-width:3.54330707;stroke-linecap:square;stroke-linejoin:miter;stroke-miterlimit:4;stroke-dasharray:none;stroke-opacity:1"
         d="m 205.11019,208.51774 -28.34646,0"
         id="path8725"
         sodipodi:nodetypes="cc"
         inkscape:connector-curvature="0" />
      <path
         style="display:inline;fill:none;stroke:#000000;stroke-width:3.54330707;stroke-linecap:square;stroke-linejoin:miter;stroke-miterlimit:4;stroke-dasharray:none;stroke-opacity:1"
         d="m 198.02357,215.60436 -14.17322,0"
         id="path8727"
         sodipodi:nodetypes="cc"
         inkscape:connector-curvature="0" />
    </g>
    <g
       id="g8767"
       transform="matrix(-0.79631227,0,0,-0.79631227,-453.4379,2707.4428)">
      <ellipse
         transform="matrix(2,0,0,2.666666,-749.66783,1417.6752)"
         id="path6422"
         style="color:#000000;display:inline;overflow:visible;visibility:visible;fill:none;stroke:#000000;stroke-width:1.92675233;stroke-linecap:square;stroke-linejoin:miter;stroke-miterlimit:4;stroke-dasharray:none;stroke-dashoffset:0;stroke-opacity:1;marker:none"
         cx="421.65353"
         cy="100.86611"
         rx="14.173228"
         ry="10.629921" />
      <path
         inkscape:connector-curvature="0"
         sodipodi:nodetypes="cc"
         id="path6424"
         d="m 121.98567,1686.6513 15.89824,0"
         style="display:inline;fill:none;stroke:#000000;stroke-width:4.44964743;stroke-linecap:square;stroke-linejoin:miter;stroke-miterlimit:4;stroke-dasharray:none;stroke-opacity:1" />
      <path
         inkscape:connector-curvature="0"
         sodipodi:nodetypes="cc"
         id="path6426"
         d="m 50.099459,1686.6513 15.193291,0"
         style="display:inline;fill:none;stroke:#000000;stroke-width:4.44964743;stroke-linecap:square;stroke-linejoin:miter;stroke-miterlimit:4;stroke-dasharray:none;stroke-opacity:1" />
    </g>
    <g
       id="g8853"
       style="display:inline"
       transform="matrix(0,0.61785321,-0.61785321,0,-447.33079,1246.3353)">
      <path
         style="display:inline;fill:none;stroke:#000000;stroke-width:3.54330707;stroke-linecap:square;stroke-linejoin:miter;stroke-miterlimit:4;stroke-dasharray:none;stroke-opacity:1"
         d="m 212.1968,201.43114 -42.51967,0"
         id="path8855"
         sodipodi:nodetypes="cc"
         inkscape:connector-curvature="0" />
      <path
         style="display:inline;fill:none;stroke:#000000;stroke-width:3.54330587;stroke-linecap:butt;stroke-linejoin:miter;stroke-miterlimit:4;stroke-dasharray:none;stroke-opacity:1"
         d="m 190.93697,187.2579 0,14.17324"
         id="path8857"
         sodipodi:nodetypes="cc"
         inkscape:connector-curvature="0" />
      <path
         style="display:inline;fill:none;stroke:#000000;stroke-width:3.54330707;stroke-linecap:square;stroke-linejoin:miter;stroke-miterlimit:4;stroke-dasharray:none;stroke-opacity:1"
         d="m 205.11019,208.51774 -28.34646,0"
         id="path8859"
         sodipodi:nodetypes="cc"
         inkscape:connector-curvature="0" />
      <path
         style="display:inline;fill:none;stroke:#000000;stroke-width:3.54330707;stroke-linecap:square;stroke-linejoin:miter;stroke-miterlimit:4;stroke-dasharray:none;stroke-opacity:1"
         d="m 198.02357,215.60436 -14.17322,0"
         id="path8861"
         sodipodi:nodetypes="cc"
         inkscape:connector-curvature="0" />
    </g>
    <circle
       r="351.83072"
       cy="1149.1163"
       cx="713.03522"
       style="fill:none;stroke:#000000;stroke-width:5.00000048;stroke-miterlimit:4;stroke-dasharray:none;stroke-opacity:1"
       id="path4528"
       transform="matrix(0.87974505,0.47544574,-0.47544574,0.87974505,0,0)" />
    <text
       xml:space="preserve"
       style="font-style:normal;font-weight:normal;font-size:32px;line-height:125%;font-family:Sans;letter-spacing:0px;word-spacing:0px;fill:#000000;fill-opacity:1;stroke:none"
       id="text9170"
       sodipodi:linespacing="125%"
       x="1355.1"
       y="-1140.0771"
       transform="matrix(0,-1,1,0,-1261.3299,1421.242)"><textPath
         xlink:href="#path4528"
         id="textPath9199"><tspan
   id="tspan9172">chamber</tspan></textPath></text>
    <text
       sodipodi:linespacing="125%"
       id="text9202"
       style="font-style:normal;font-weight:normal;font-size:32px;line-height:125%;font-family:Sans;letter-spacing:0px;word-spacing:0px;fill:#000000;fill-opacity:1;stroke:none"
       xml:space="preserve"
       x="-33.510014"
       y="31.74633"
       transform="matrix(-1,0,0,-1,190.81334,2737.3517)"><textPath
         id="textPath9204"
         xlink:href="#path4528">plasma radius</textPath></text>
    <text
       xml:space="preserve"
       style="font-style:normal;font-weight:normal;font-size:32px;line-height:125%;font-family:Sans;text-align:center;letter-spacing:0px;word-spacing:0px;text-anchor:middle;fill:#000000;fill-opacity:1;stroke:none"
       x="-337.41104"
       y="1259.7775"
       id="text9208"
       sodipodi:linespacing="125%"><tspan
         sodipodi:role="line"
         id="tspan9210"
         x="-332.31729"
         y="1259.7775">ball pen </tspan><tspan
         sodipodi:role="line"
         x="-337.41104"
         y="1299.7775"
         id="tspan4006">probe</tspan></text>
    <g
       id="g4027"
       transform="translate(-41.391556,32.9989)">
      <rect
         y="1313.5748"
         x="-143.83476"
         height="4.373178"
         width="35.102219"
         id="rect3998"
         style="fill:#000000;fill-rule:evenodd;stroke:#000000;stroke-width:0.77006418px;stroke-linecap:butt;stroke-linejoin:miter;stroke-opacity:1" />
      <rect
         style="fill:#000000;fill-rule:evenodd;stroke:#000000;stroke-width:0.77006418px;stroke-linecap:butt;stroke-linejoin:miter;stroke-opacity:1"
         id="rect4000"
         width="35.102219"
         height="4.373178"
         x="-142.79895"
         y="1345.5122" />
      <rect
         transform="matrix(0.69816423,0.71593764,-0.71593764,0.69816423,0,0)"
         y="1013.7375"
         x="847.35986"
         height="24.859451"
         width="24.859451"
         id="rect4002"
         style="fill:#000000" />
      <rect
         y="1313.1718"
         x="-199.99879"
         height="36.943905"
         width="65.08342"
         id="rect4004"
         style="fill:#000000" />
    </g>
    <text
       xml:space="preserve"
       style="font-style:normal;font-weight:normal;font-size:32px;line-height:125%;font-family:Sans;letter-spacing:0px;word-spacing:0px;fill:#000000;fill-opacity:1;stroke:none"
       x="-530.5116"
       y="1457.4434"
       id="text4021"
       sodipodi:linespacing="125%"><tspan
         sodipodi:role="line"
         id="tspan4023"
         x="-530.5116"
         y="1457.4434"
         style="font-size:12.5px">(Papouch_ST_12)</tspan><tspan
         id="tspan4025"
         sodipodi:role="line"
         x="-530.5116"
         y="1473.0684"
         style="font-size:24px" /></text>
    <text
       xml:space="preserve"
       style="font-style:normal;font-weight:normal;font-size:32px;line-height:125%;font-family:Sans;letter-spacing:0px;word-spacing:0px;fill:#000000;fill-opacity:1;stroke:none"
       x="-530.54395"
       y="1442.385"
       id="text3562"
       sodipodi:linespacing="125%"><tspan
         sodipodi:role="line"
         id="tspan3564"
         x="-530.54395"
         y="1442.385"
         style="font-size:24px">DAS</tspan><tspan
         id="tspan3566"
         sodipodi:role="line"
         x="-530.54395"
         y="1472.385"
         style="font-size:24px" /></text>
    <path
       style="fill:none;stroke:#000000;stroke-width:3.54330516;stroke-linecap:square;stroke-linejoin:miter;stroke-miterlimit:4;stroke-dasharray:none;stroke-opacity:1;marker-end:url(#Arrow1Send)"
       d="m -508.5082,1394.6871 19.53094,16.7441"
       id="path3568"
       sodipodi:nodetypes="cc"
       inkscape:connector-curvature="0" />
    <path
       style="fill:none;stroke:#000000;stroke-width:1.77165353;stroke-linecap:square;stroke-linejoin:miter;stroke-miterlimit:4;stroke-dasharray:5.3149606, 5.3149606;stroke-dashoffset:0;stroke-opacity:1"
       d="m -159.89511,1364.9159 0,50.7281"
       id="path3437"
       sodipodi:nodetypes="cc"
       inkscape:connector-curvature="0" />
    <path
       inkscape:connector-curvature="0"
       sodipodi:nodetypes="cc"
       id="path3439"
       d="m -148.87299,1413.8173 -13.08688,0"
       style="fill:none;stroke:#000000;stroke-width:1.77165353;stroke-linecap:square;stroke-linejoin:miter;stroke-miterlimit:4;stroke-dasharray:none;stroke-opacity:1;marker-start:url(#Arrow1Mend);marker-mid:none;marker-end:url(#Arrow1Mstart)" />
    <text
       sodipodi:linespacing="125%"
       id="text3441"
       y="1444.162"
       x="-201.41798"
       style="font-style:normal;font-weight:normal;font-size:32px;line-height:125%;font-family:Sans;letter-spacing:0px;word-spacing:0px;fill:#000000;fill-opacity:1;stroke:none"
       xml:space="preserve"><tspan
         style="font-size:24px"
         y="1444.162"
         x="-201.41798"
         id="tspan3443"
         sodipodi:role="line">h=0.5 mm</tspan></text>
    <path
       inkscape:connector-curvature="0"
       sodipodi:nodetypes="cc"
       id="path3449"
       d="m -148.92464,1378.8297 0,34.9413"
       style="fill:none;stroke:#000000;stroke-width:1.77165353;stroke-linecap:square;stroke-linejoin:miter;stroke-miterlimit:4;stroke-dasharray:5.3149606, 5.3149606;stroke-dashoffset:0;stroke-opacity:1" />
    <rect
       transform="matrix(0,1,-1,0,0,0)"
       y="174.5739"
       x="1311.5654"
       height="242.14778"
       width="35.507843"
       id="rect3458"
       style="fill:#ffffff;fill-opacity:1;stroke:#000000;stroke-width:0.92522764;stroke-opacity:1" />
    <rect
       y="1310.0607"
       x="-184.82944"
       height="4.373178"
       width="35.102219"
       id="rect3462"
       style="fill:#000000;fill-rule:evenodd;stroke:#000000;stroke-width:0.77006418px;stroke-linecap:butt;stroke-linejoin:miter;stroke-opacity:1" />
    <rect
       style="fill:#000000;fill-rule:evenodd;stroke:#000000;stroke-width:0.77006418px;stroke-linecap:butt;stroke-linejoin:miter;stroke-opacity:1"
       id="rect3464"
       width="35.102219"
       height="4.373178"
       x="-183.79362"
       y="1341.998" />
    <rect
       y="1309.6576"
       x="-240.99347"
       height="36.943905"
       width="66.812386"
       id="rect3468"
       style="fill:#000000" />
    <path
       inkscape:connector-curvature="0"
       sodipodi:nodetypes="cc"
       id="path3474"
       d="m -143.20581,1329.1145 -387.46709,0"
       style="fill:none;stroke:#000000;stroke-width:3.54330516;stroke-linecap:square;stroke-linejoin:miter;stroke-miterlimit:4;stroke-dasharray:none;stroke-opacity:1" />
    <g
       transform="matrix(-0.79631227,0,0,-0.79631227,-489.20768,2672.1746)"
       id="g3476">
      <ellipse
         ry="10.629921"
         rx="14.173228"
         cy="100.86611"
         cx="421.65353"
         style="color:#000000;display:inline;overflow:visible;visibility:visible;fill:none;stroke:#000000;stroke-width:1.92675233;stroke-linecap:square;stroke-linejoin:miter;stroke-miterlimit:4;stroke-dasharray:none;stroke-dashoffset:0;stroke-opacity:1;marker:none"
         id="ellipse3478"
         transform="matrix(2,0,0,2.666666,-749.66783,1417.6752)" />
      <path
         style="display:inline;fill:none;stroke:#000000;stroke-width:4.44964743;stroke-linecap:square;stroke-linejoin:miter;stroke-miterlimit:4;stroke-dasharray:none;stroke-opacity:1"
         d="m 121.98567,1686.6513 15.89824,0"
         id="path3480"
         sodipodi:nodetypes="cc"
         inkscape:connector-curvature="0" />
      <path
         style="display:inline;fill:none;stroke:#000000;stroke-width:4.44964743;stroke-linecap:square;stroke-linejoin:miter;stroke-miterlimit:4;stroke-dasharray:none;stroke-opacity:1"
         d="m 50.099459,1686.6513 15.193291,0"
         id="path3482"
         sodipodi:nodetypes="cc"
         inkscape:connector-curvature="0" />
    </g>
    <text
       xml:space="preserve"
       style="font-style:normal;font-weight:normal;font-size:18.20495796px;line-height:125%;font-family:Sans;letter-spacing:0px;word-spacing:0px;fill:#000000;fill-opacity:1;stroke:none"
       x="-611.15021"
       y="1275.593"
       id="text3484"
       sodipodi:linespacing="125%"
       transform="scale(0.95607276,1.0459455)"><tspan
         sodipodi:role="line"
         id="tspan3486"
         x="-611.15021"
         y="1275.593"
         style="font-size:13.65371799px">U<tspan
   id="tspan3488"
   style="font-size:8.87504196px;baseline-shift:sub">LP_bpp</tspan></tspan></text>
    <g
       transform="matrix(0,1,-1,0,-413.64403,1137.9439)"
       style="display:inline"
       id="g3490">
      <path
         inkscape:connector-curvature="0"
         sodipodi:nodetypes="cc"
         id="path3492"
         d="m 212.1968,201.43114 -42.51967,0"
         style="display:inline;fill:none;stroke:#000000;stroke-width:3.54330707;stroke-linecap:square;stroke-linejoin:miter;stroke-miterlimit:4;stroke-dasharray:none;stroke-opacity:1" />
      <path
         inkscape:connector-curvature="0"
         sodipodi:nodetypes="cc"
         id="path3494"
         d="m 190.93697,187.2579 0,14.17324"
         style="display:inline;fill:none;stroke:#000000;stroke-width:3.54330587;stroke-linecap:butt;stroke-linejoin:miter;stroke-miterlimit:4;stroke-dasharray:none;stroke-opacity:1" />
      <path
         inkscape:connector-curvature="0"
         sodipodi:nodetypes="cc"
         id="path3496"
         d="m 205.11019,208.51774 -28.34646,0"
         style="display:inline;fill:none;stroke:#000000;stroke-width:3.54330707;stroke-linecap:square;stroke-linejoin:miter;stroke-miterlimit:4;stroke-dasharray:none;stroke-opacity:1" />
      <path
         inkscape:connector-curvature="0"
         sodipodi:nodetypes="cc"
         id="path3498"
         d="m 198.02357,215.60436 -14.17322,0"
         style="display:inline;fill:none;stroke:#000000;stroke-width:3.54330707;stroke-linecap:square;stroke-linejoin:miter;stroke-miterlimit:4;stroke-dasharray:none;stroke-opacity:1" />
    </g>
    <g
       id="g3455">
      <path
         style="fill:none;stroke:#000000;stroke-width:3.54330516;stroke-linecap:square;stroke-linejoin:miter;stroke-miterlimit:4;stroke-dasharray:none;stroke-opacity:1;marker-end:url(#Arrow1Send)"
         d="m -541.4493,1301.8539 19.53094,-16.7441"
         id="path3500"
         sodipodi:nodetypes="cc"
         inkscape:connector-curvature="0" />
      <text
         xml:space="preserve"
         style="font-style:normal;font-weight:normal;font-size:32px;line-height:125%;font-family:Sans;letter-spacing:0px;word-spacing:0px;fill:#000000;fill-opacity:1;stroke:none"
         x="-515.46466"
         y="1267.0999"
         id="text3502"
         sodipodi:linespacing="125%"><tspan
           sodipodi:role="line"
           id="tspan3504"
           x="-515.46466"
           y="1267.0999"
           style="font-size:12.5px">(Papouch_ST_11)</tspan><tspan
           id="tspan3506"
           sodipodi:role="line"
           x="-515.46466"
           y="1282.7249"
           style="font-size:24px" /></text>
      <text
         xml:space="preserve"
         style="font-style:normal;font-weight:normal;font-size:32px;line-height:125%;font-family:Sans;letter-spacing:0px;word-spacing:0px;fill:#000000;fill-opacity:1;stroke:none"
         x="-513.67859"
         y="1251.1323"
         id="text3508"
         sodipodi:linespacing="125%"><tspan
           sodipodi:role="line"
           id="tspan3510"
           x="-513.67859"
           y="1251.1323"
           style="font-size:24px">DAS</tspan><tspan
           id="tspan3512"
           sodipodi:role="line"
           x="-513.67859"
           y="1281.1323"
           style="font-size:24px" /></text>
    </g>
    <text
       transform="scale(0.95607276,1.0459455)"
       sodipodi:linespacing="125%"
       id="text3514"
       y="1307.9736"
       x="-565.97809"
       style="font-style:normal;font-weight:normal;font-size:18.20495796px;line-height:125%;font-family:Sans;letter-spacing:0px;word-spacing:0px;fill:#000000;fill-opacity:1;stroke:none"
       xml:space="preserve"><tspan
         style="font-size:13.65371799px"
         y="1307.9736"
         x="-565.97809"
         id="tspan3516"
         sodipodi:role="line">U<tspan
   style="font-size:8.87504196px;baseline-shift:sub"
   id="tspan3518">BPP</tspan></tspan></text>
    <text
       xml:space="preserve"
       style="font-style:normal;font-weight:normal;font-size:32px;line-height:125%;font-family:Sans;letter-spacing:0px;word-spacing:0px;fill:#000000;fill-opacity:1;stroke:none"
       x="-410.4957"
       y="1323.0167"
       id="text3520"
       sodipodi:linespacing="125%"><tspan
         sodipodi:role="line"
         id="tspan3522"
         x="-410.4957"
         y="1323.0167"
         style="font-size:12.5px">Langmuir tip</tspan><tspan
         id="tspan3524"
         sodipodi:role="line"
         x="-410.4957"
         y="1338.6417"
         style="font-size:24px" /></text>
    <text
       sodipodi:linespacing="125%"
       id="text3526"
       y="1358.9308"
       x="-409.58649"
       style="font-style:normal;font-weight:normal;font-size:32px;line-height:125%;font-family:Sans;letter-spacing:0px;word-spacing:0px;fill:#000000;fill-opacity:1;stroke:none"
       xml:space="preserve"><tspan
         style="font-size:12.5px"
         y="1358.9308"
         x="-409.58649"
         id="tspan3528"
         sodipodi:role="line">Ball pen probe tip</tspan><tspan
         style="font-size:24px"
         y="1374.5558"
         x="-409.58649"
         sodipodi:role="line"
         id="tspan3530" /></text>
    <text
       xml:space="preserve"
       style="font-style:normal;font-weight:normal;font-size:32px;line-height:125%;font-family:Sans;letter-spacing:0px;word-spacing:0px;fill:#000000;fill-opacity:1;stroke:none"
       x="-568.23169"
       y="954.72717"
       id="text3532"
       sodipodi:linespacing="125%"><tspan
         sodipodi:role="line"
         id="tspan3534"
         x="-568.23169"
         y="954.72717"
         style="font-size:24px">North-East port</tspan><tspan
         id="tspan3536"
         sodipodi:role="line"
         x="-568.23169"
         y="984.72717"
         style="font-size:24px" /></text>
  </g>
</svg>
