<?xml version="1.0" encoding="UTF-8" standalone="no"?>
<!-- Created with Inkscape (http://www.inkscape.org/) -->

<svg
   xmlns:dc="http://purl.org/dc/elements/1.1/"
   xmlns:cc="http://creativecommons.org/ns#"
   xmlns:rdf="http://www.w3.org/1999/02/22-rdf-syntax-ns#"
   xmlns:svg="http://www.w3.org/2000/svg"
   xmlns="http://www.w3.org/2000/svg"
   xmlns:xlink="http://www.w3.org/1999/xlink"
   xmlns:sodipodi="http://sodipodi.sourceforge.net/DTD/sodipodi-0.dtd"
   xmlns:inkscape="http://www.inkscape.org/namespaces/inkscape"
   width="756.02655"
   height="906.46387"
   id="svg4507"
   version="1.1"
   inkscape:version="0.91 r"
   sodipodi:docname="expsetup.svg"
   inkscape:export-filename="/golem/svoboda/Dirigent/Devices/Tools/BiasingElectrode/expsetup"
   inkscape:export-xdpi="15.842811"
   inkscape:export-ydpi="15.842811"
   viewBox="0 0 708.77487 849.80985">
  <defs
     id="defs4509">
    <linearGradient
       inkscape:collect="always"
       id="linearGradient9141">
      <stop
         style="stop-color:#ff0000;stop-opacity:1;"
         offset="0"
         id="stop9143" />
      <stop
         style="stop-color:#ff0000;stop-opacity:0;"
         offset="1"
         id="stop9145" />
    </linearGradient>
    <marker
       inkscape:stockid="Arrow1Mstart"
       orient="auto"
       refY="0"
       refX="0"
       id="Arrow1Mstart"
       style="overflow:visible">
      <path
         id="path3949"
         d="M 0,0 5,-5 -12.5,0 5,5 Z"
         style="fill-rule:evenodd;stroke:#000000;stroke-width:1pt"
         transform="matrix(0.4,0,0,0.4,4,0)"
         inkscape:connector-curvature="0" />
    </marker>
    <marker
       inkscape:stockid="Arrow1Send"
       orient="auto"
       refY="0"
       refX="0"
       id="Arrow1Send"
       style="overflow:visible">
      <path
         id="path3958"
         d="M 0,0 5,-5 -12.5,0 5,5 Z"
         style="fill-rule:evenodd;stroke:#000000;stroke-width:1pt"
         transform="matrix(-0.2,0,0,-0.2,-1.2,0)"
         inkscape:connector-curvature="0" />
    </marker>
    <marker
       inkscape:stockid="Arrow1Mend"
       orient="auto"
       refY="0"
       refX="0"
       id="Arrow1Mend"
       style="overflow:visible">
      <path
         id="path3952"
         d="M 0,0 5,-5 -12.5,0 5,5 Z"
         style="fill-rule:evenodd;stroke:#000000;stroke-width:1pt"
         transform="matrix(-0.4,0,0,-0.4,-4,0)"
         inkscape:connector-curvature="0" />
    </marker>
    <marker
       inkscape:stockid="Arrow2Mend"
       orient="auto"
       refY="0"
       refX="0"
       id="Arrow2Mend"
       style="overflow:visible">
      <path
         id="path3970"
         style="fill-rule:evenodd;stroke-width:0.625;stroke-linejoin:round"
         d="M 8.7185878,4.0337352 -2.2072895,0.01601326 8.7185884,-4.0017078 c -1.7454984,2.3720609 -1.7354408,5.6174519 -6e-7,8.035443 z"
         transform="scale(-0.6,-0.6)"
         inkscape:connector-curvature="0" />
    </marker>
    <marker
       inkscape:stockid="Arrow1Lend"
       orient="auto"
       refY="0"
       refX="0"
       id="Arrow1Lend"
       style="overflow:visible">
      <path
         id="path3946"
         d="M 0,0 5,-5 -12.5,0 5,5 Z"
         style="fill-rule:evenodd;stroke:#000000;stroke-width:1pt"
         transform="matrix(-0.8,0,0,-0.8,-10,0)"
         inkscape:connector-curvature="0" />
    </marker>
    <linearGradient
       inkscape:collect="always"
       id="linearGradient3790">
      <stop
         style="stop-color:#ff0000;stop-opacity:1;"
         offset="0"
         id="stop3792" />
      <stop
         style="stop-color:#ff0000;stop-opacity:0;"
         offset="1"
         id="stop3794" />
    </linearGradient>
    <radialGradient
       inkscape:collect="always"
       xlink:href="#linearGradient3790"
       id="radialGradient3796"
       cx="309.10669"
       cy="487.68692"
       fx="309.10669"
       fy="487.68692"
       r="115.17954"
       gradientUnits="userSpaceOnUse" />
    <radialGradient
       inkscape:collect="always"
       xlink:href="#linearGradient3790"
       id="radialGradient9017"
       gradientUnits="userSpaceOnUse"
       cx="309.10669"
       cy="487.68692"
       fx="309.10669"
       fy="487.68692"
       r="115.17954"
       gradientTransform="translate(-220.16185,269.0694)" />
    <radialGradient
       inkscape:collect="always"
       xlink:href="#linearGradient9141"
       id="radialGradient9147"
       cx="309.10669"
       cy="487.68692"
       fx="309.10669"
       fy="487.68692"
       r="116.14631"
       gradientUnits="userSpaceOnUse" />
  </defs>
  <sodipodi:namedview
     id="base"
     pagecolor="#ffffff"
     bordercolor="#666666"
     borderopacity="1.0"
     inkscape:pageopacity="0.0"
     inkscape:pageshadow="2"
     inkscape:zoom="0.86162971"
     inkscape:cx="169.11967"
     inkscape:cy="404.74279"
     inkscape:document-units="mm"
     inkscape:current-layer="layer1"
     showgrid="false"
     inkscape:window-width="2048"
     inkscape:window-height="1100"
     inkscape:window-x="-3"
     inkscape:window-y="-3"
     inkscape:window-maximized="1"
     showguides="true"
     inkscape:guide-bbox="true"
     units="mm"
     fit-margin-top="0"
     fit-margin-left="0"
     fit-margin-right="0"
     fit-margin-bottom="0" />
  <metadata
     id="metadata4512">
    <rdf:RDF>
      <cc:Work
         rdf:about="">
        <dc:format>image/svg+xml</dc:format>
        <dc:type
           rdf:resource="http://purl.org/dc/dcmitype/StillImage" />
        <dc:title></dc:title>
      </cc:Work>
    </rdf:RDF>
  </metadata>
  <g
     inkscape:label="Layer 1"
     inkscape:groupmode="layer"
     id="layer1"
     transform="translate(356.02108,-556.65329)">
    <circle
       transform="matrix(2.5859471,0,0,2.5859471,-800.96722,-209.05688)"
       id="path9131"
       style="fill:url(#radialGradient9147);fill-opacity:1;stroke:#000000;stroke-width:0.15209402;stroke-miterlimit:4;stroke-dasharray:none;stroke-opacity:1"
       cx="309.10669"
       cy="487.68692"
       r="115.17954" />
    <circle
       transform="matrix(2.5833146,0,0,2.5931784,-800.15352,-213.71965)"
       id="path3788"
       style="fill:url(#radialGradient9017);fill-opacity:1;stroke:none"
       cx="309.10669"
       cy="487.68692"
       r="115.17954" />
    <text
       xml:space="preserve"
       style="font-style:normal;font-weight:normal;line-height:0%;font-family:sans-serif;letter-spacing:0px;word-spacing:0px;fill:#000000;fill-opacity:1;stroke:none"
       x="-280.97061"
       y="1039.6281"
       id="text6305"
       sodipodi:linespacing="0%"><tspan
         sodipodi:role="line"
         id="tspan6307"
         x="-280.97061"
         y="1039.6281"
         style="font-size:32px;line-height:1.25;font-family:sans-serif">HFS</tspan></text>
    <text
       id="text6309"
       y="1041.4159"
       x="227.59439"
       style="font-style:normal;font-weight:normal;line-height:0%;font-family:sans-serif;letter-spacing:0px;word-spacing:0px;fill:#000000;fill-opacity:1;stroke:none"
       xml:space="preserve"
       sodipodi:linespacing="0%"><tspan
         y="1041.4159"
         x="227.59439"
         id="tspan6311"
         sodipodi:role="line"
         style="font-size:32px;line-height:1.25;font-family:sans-serif">LFS</tspan></text>
    <circle
       style="fill:none;stroke:#000000;stroke-width:1.63686037;stroke-miterlimit:4;stroke-dasharray:none;stroke-opacity:1"
       id="path4528"
       transform="matrix(1.4523101,-2.6872943,2.6872943,1.4523101,-1761.1107,1174.4637)"
       cx="309.10669"
       cy="487.68692"
       r="115.17954" />
    <text
       xml:space="preserve"
       style="font-style:normal;font-weight:normal;font-size:32px;line-height:0%;font-family:sans-serif;letter-spacing:0px;word-spacing:0px;fill:#000000;fill-opacity:1;stroke:none"
       id="text9170"
       transform="translate(3.52737,-7.05474)"
       sodipodi:linespacing="0%"><textPath
         xlink:href="#path4528"
         id="textPath9199"
         style="font-family:sans-serif"><tspan
   id="tspan9172"
   style="font-family:sans-serif">chamber</tspan></textPath></text>
    <text
       id="text9202"
       style="font-style:normal;font-weight:normal;font-size:32px;line-height:0%;font-family:sans-serif;letter-spacing:0px;word-spacing:0px;fill:#000000;fill-opacity:1;stroke:none"
       xml:space="preserve"
       transform="translate(-70.401767,53.447358)"
       sodipodi:linespacing="0%"><textPath
         id="textPath9204"
         xlink:href="#path4528"
         style="font-family:sans-serif">plasma radius</textPath></text>
    <g
       id="g3408"
       transform="translate(437.42973,-375.6672)">
      <ellipse
         ry="49.369843"
         rx="94.399483"
         cy="988.17584"
         cx="-417.86902"
         id="path3386"
         style="opacity:0;fill:#000000;fill-opacity:1;stroke:#ff0000;stroke-width:8.30462646;stroke-miterlimit:4;stroke-dasharray:none" />
      <g
         id="g3404">
        <ellipse
           style="opacity:1;fill:#000000;fill-opacity:1;stroke:#000000;stroke-width:8.30462646;stroke-miterlimit:4;stroke-dasharray:none"
           id="path3400"
           cx="-434.14478"
           cy="1134.6577"
           rx="112.84535"
           ry="30.923965" />
        <rect
           style="opacity:1;fill:#ffffff;fill-opacity:1;stroke:#ffffff;stroke-width:4.77043915;stroke-miterlimit:4;stroke-dasharray:none"
           id="rect3402"
           width="231.45387"
           height="33.174892"
           x="-548.86139"
           y="1099.4456" />
      </g>
      <rect
         y="934.40424"
         x="-448.73792"
         height="200.53146"
         width="32.348484"
         id="rect3398"
         style="opacity:1;fill:#000000;fill-opacity:1;stroke:#000000;stroke-width:4.16748667;stroke-miterlimit:4;stroke-dasharray:none" />
    </g>
  </g>
</svg>
